<?xml version="1.0" encoding="UTF-8" standalone="no"?>
<!-- Created with Inkscape (http://www.inkscape.org/) -->

<svg
   width="1618"
   height="1000.0001"
   viewBox="0 0 428.09582 264.58335"
   version="1.1"
   id="svg1"
   xml:space="preserve"
   inkscape:version="1.3.2 (091e20ef0f, 2023-11-25, custom)"
   sodipodi:docname="flag.svg"
   xmlns:inkscape="http://www.inkscape.org/namespaces/inkscape"
   xmlns:sodipodi="http://sodipodi.sourceforge.net/DTD/sodipodi-0.dtd"
   xmlns="http://www.w3.org/2000/svg"
   xmlns:svg="http://www.w3.org/2000/svg"><sodipodi:namedview
     id="namedview1"
     pagecolor="#ffffff"
     bordercolor="#000000"
     borderopacity="0.25"
     inkscape:showpageshadow="2"
     inkscape:pageopacity="0.0"
     inkscape:pagecheckerboard="0"
     inkscape:deskcolor="#d1d1d1"
     inkscape:document-units="px"
     inkscape:zoom="0.70710678"
     inkscape:cx="862.67027"
     inkscape:cy="439.11331"
     inkscape:window-width="1920"
     inkscape:window-height="1043"
     inkscape:window-x="1920"
     inkscape:window-y="81"
     inkscape:window-maximized="1"
     inkscape:current-layer="layer1"><inkscape:page
       x="0"
       y="0"
       width="428.09583"
       height="264.58334"
       id="page17"
       margin="0"
       bleed="0" /></sodipodi:namedview><defs
     id="defs1" /><g
     inkscape:label="Layer 1"
     inkscape:groupmode="layer"
     id="layer1"><rect
       style="fill:#000000;stroke-width:3.5171;stroke-linecap:square;stroke-miterlimit:1.5;paint-order:markers fill stroke"
       id="rect1-0"
       width="428.09583"
       height="264.58334"
       x="-428.09583"
       y="0"
       transform="scale(-1,1)" /><rect
       style="fill:#124754;fill-opacity:1;stroke-width:4.47367;stroke-linecap:square;stroke-miterlimit:1.5;paint-order:markers fill stroke"
       id="rect3-6"
       width="264.58337"
       height="264.58331"
       x="-428.09583"
       y="0"
       transform="scale(-1,1)" /><rect
       style="fill:#4a0d09;fill-opacity:1;stroke-width:2.765;stroke-linecap:square;stroke-miterlimit:1.5;paint-order:markers fill stroke"
       id="rect2-2"
       width="264.58331"
       height="163.5125"
       x="-428.09583"
       y="0"
       transform="scale(-1,1)" /><path
       d="m 314.15614,163.51249 -18.36528,25.25047 -18.32528,-25.25047 -0.0116,-0.0158 18.37983,-56.47366 z"
       style="display:inline;fill:#000000;fill-opacity:1;stroke-width:0.960298;stroke-linecap:square;stroke-miterlimit:1.5;paint-order:markers fill stroke"
       id="path9-7" /><path
       d="m 332.51459,163.51249 -36.71047,50.52767 -36.71044,-50.52731 v 0 L 295.81041,50.527684 Z m -18.35845,0 -18.32221,-56.48945 -18.37983,56.47365 0.0116,0.0158 18.32528,25.25048 z"
       style="display:inline;fill:#d0932c;fill-opacity:1;stroke-width:0.960298;stroke-linecap:square;stroke-miterlimit:1.5;paint-order:markers fill stroke"
       id="path8-0" /></g></svg>
