<?xml version="1.0" encoding="UTF-8" standalone="no"?>
<!-- Created with Inkscape (http://www.inkscape.org/) -->

<svg
   width="1000"
   height="1000"
   viewBox="0 0 264.58333 264.58332"
   version="1.1"
   id="svg1"
   xml:space="preserve"
   inkscape:version="1.3.2 (091e20ef0f, 2023-11-25, custom)"
   sodipodi:docname="icon.svg"
   xmlns:inkscape="http://www.inkscape.org/namespaces/inkscape"
   xmlns:sodipodi="http://sodipodi.sourceforge.net/DTD/sodipodi-0.dtd"
   xmlns="http://www.w3.org/2000/svg"
   xmlns:svg="http://www.w3.org/2000/svg"><sodipodi:namedview
     id="namedview1"
     pagecolor="#ffffff"
     bordercolor="#000000"
     borderopacity="0.25"
     inkscape:showpageshadow="2"
     inkscape:pageopacity="0.0"
     inkscape:pagecheckerboard="0"
     inkscape:deskcolor="#d1d1d1"
     inkscape:document-units="px"
     inkscape:zoom="0.70710678"
     inkscape:cx="889.54033"
     inkscape:cy="433.45645"
     inkscape:window-width="1920"
     inkscape:window-height="1043"
     inkscape:window-x="1920"
     inkscape:window-y="81"
     inkscape:window-maximized="1"
     inkscape:current-layer="layer1"><inkscape:page
       x="0"
       y="0"
       width="264.58334"
       height="264.58331"
       id="page17"
       margin="0"
       bleed="0" /></sodipodi:namedview><defs
     id="defs1" /><g
     inkscape:label="Layer 1"
     inkscape:groupmode="layer"
     id="layer1"><rect
       style="fill:#124754;fill-opacity:1;stroke-width:4.47367;stroke-linecap:square;stroke-miterlimit:1.5;paint-order:markers fill stroke"
       id="rect3-6"
       width="264.58337"
       height="264.58331"
       x="0"
       y="0" /><rect
       style="fill:#4a0d09;fill-opacity:1;stroke-width:2.765;stroke-linecap:square;stroke-miterlimit:1.5;paint-order:markers fill stroke"
       id="rect2-2"
       width="264.58331"
       height="163.5125"
       x="0"
       y="0" /><path
       d="m 113.93969,163.51249 18.36528,25.25047 18.32528,-25.25047 0.0116,-0.0158 -18.37983,-56.47366 z"
       style="display:inline;fill:#000000;fill-opacity:1;stroke-width:0.960298;stroke-linecap:square;stroke-miterlimit:1.5;paint-order:markers fill stroke"
       id="path9-7" /><path
       d="m 95.581235,163.51249 36.710475,50.52767 36.71044,-50.52731 v 0 L 132.28542,50.527684 Z m 18.358455,0 18.32221,-56.48945 18.37983,56.47365 -0.0116,0.0158 -18.32528,25.25048 z"
       style="display:inline;fill:#d0932c;fill-opacity:1;stroke-width:0.960298;stroke-linecap:square;stroke-miterlimit:1.5;paint-order:markers fill stroke"
       id="path8-0" /></g></svg>
